{
  "tabletoolstoolbar": {
    "0.0.1": "https://download.ckeditor.com/tabletoolstoolbar/releases/tabletoolstoolbar_0.0.1.zip" 
  },
  "texttransform": {
    "1.1.0": "https://download.ckeditor.com/texttransform/releases/texttransform_1.1.zip"
  }
}
